{
  "project_info": {
    "project_number": "315153701197",
    "firebase_url": "https://sikupe.firebaseio.com",
    "project_id": "sikupe",
    "storage_bucket": "sikupe.appspot.com"
  },
  "client": [
    {
      "client_info": {
        "mobilesdk_app_id": "1:315153701197:android:347ccb8f5120afac6c7f04",
        "android_client_info": {
          "package_name": "com.mandy.e_arship"
        }
      },
      "oauth_client": [
        {
          "client_id": "315153701197-bvscmr595cuep422gvugutqq21kq08ei.apps.googleusercontent.com",
          "client_type": 1,
          "android_info": {
            "package_name": "com.mandy.e_arship",
            "certificate_hash": "b4d53930dc88b7898dc03dd2a5649119c2088980"
          }
        },
        {
          "client_id": "315153701197-n88n9umaefjs3ffe8a6qphmaskcn3fhr.apps.googleusercontent.com",
          "client_type": 3
        }
      ],
      "api_key": [
        {
          "current_key": "AIzaSyBsUrGb1baNDLhwLnBwkqgmcZyitLgjpEk"
        }
      ],
      "services": {
        "appinvite_service": {
          "other_platform_oauth_client": [
            {
              "client_id": "315153701197-n88n9umaefjs3ffe8a6qphmaskcn3fhr.apps.googleusercontent.com",
              "client_type": 3
            }
          ]
        }
      }
    }
  ],
  "configuration_version": "1"
}